{
    "jenkins" : {
        "baseUrl": "http://lark.dev.o2.co.uk:8091",
        "viewNames": [
            "Radiator-Master",
            "Radiator-Candidate",
            "Radiator-Prod"
        ]
    },

    "radiator" : {
        "name" : "Services"
    }
}